Walkthrough • openwashdata
…
3. Extract Dictionary Skeleton from Data File

Now let’s move whatever data files we have in place. This means, move
our raw data file(s) to the data-raw folder of our package.
In our case we have a single spreadsheet file
sustainability.xls1. So let’s try to read this file into R and
see how it behaves.

library(readxl)
stn <- read_xls("data-raw/sustainability.xls")

#> # A tibble: 5,653 × 1
#>    FID;Shape *;Shape__;Date_;Time_;Date_1;Time_1;LATITUDE;N_S;LONGITUDE;E_W;HE…¹
#>    <chr>                                                                        
#>  1 117;Point ZM;Point;30.03.2015;10:53:03.00;30.03.2015;13:53:03.00;0.358437;N;…
#>  2 118;Point ZM;Point;31.03.2015;03:53:41.00;31.03.2015;06:53:41.00;0.348626;N;…
#>  3 119;Point ZM;Point;31.03.2015;10:33:01.00;31.03.2015;13:33:01.00;0.322447;N;…
#>  4 120;Point ZM;Point;31.03.2015;11:42:01.00;31.03.2015;14:42:01.00;0.363645;N;…
#>  5 121;Point ZM;Point;01.04.2015;07:03:01.00;01.04.2015;10:03:01.00;0.360351;N;…
#>  6 122;Point ZM;Point;01.04.2015;09:14:21.00;01.04.2015;12:14:21.00;0.311899;N;…
#>  7 123;Point ZM;Point;01.04.2015;10:17:51.00;01.04.2015;13:17:51.00;0.319267;N;…
#>  8 124;Point ZM;Point;02.04.2015;08:03:12.00;02.04.2015;11:03:12.00;0.340054;N;…
#>  9 125;Point ZM;Point;02.04.2015;10:54:02.00;02.04.2015;13:54:02.00;0.37151;N;3…
#> 10 126;Point ZM;Point;02.04.2015;12:31:12.00;02.04.2015;15:31:12.00;0.3716;N;32…
#> # … with 5,643 more rows, and abbreviated variable name
#> #   ¹​`FID;Shape *;Shape__;Date_;Time_;Date_1;Time_1;LATITUDE;N_S;LONGITUDE;E_W;HEIGHT;Numberplat;Volume;Plant`
…
